\relax 
\providecommand\hyper@newdestlabel[2]{}
\providecommand\HyperFirstAtBeginDocument{\AtBeginDocument}
\HyperFirstAtBeginDocument{\ifx\hyper@anchor\@undefined
\global\let\oldcontentsline\contentsline
\gdef\contentsline#1#2#3#4{\oldcontentsline{#1}{#2}{#3}}
\global\let\oldnewlabel\newlabel
\gdef\newlabel#1#2{\newlabelxx{#1}#2}
\gdef\newlabelxx#1#2#3#4#5#6{\oldnewlabel{#1}{{#2}{#3}}}
\AtEndDocument{\ifx\hyper@anchor\@undefined
\let\contentsline\oldcontentsline
\let\newlabel\oldnewlabel
\fi}
\fi}
\global\let\hyper@last\relax 
\gdef\HyperFirstAtBeginDocument#1{#1}
\providecommand\HyField@AuxAddToFields[1]{}
\providecommand\HyField@AuxAddToCoFields[2]{}
\bibstyle{plainnat}
\citation{[OpenCV]}
\@writefile{toc}{\contentsline {section}{\numberline {1}Introdu\IeC {\c c}\IeC {\~a}o}{1}{section.1}}
\newlabel{sec:intro}{{1}{1}{Introdução}{section.1}{}}
\newlabel{eq:proximo}{{1}{1}{Introdução}{equation.1.1}{}}
\newlabel{eq:euclid}{{2}{1}{Introdução}{equation.1.2}{}}
\newlabel{eq:euclidProximo}{{3}{1}{Introdução}{equation.1.3}{}}
\citation{[OpenCV]}
\citation{[instalacao]}
\citation{[inRange]}
\@writefile{toc}{\contentsline {subsection}{\numberline {1.1}Outros objetivos}{2}{subsection.1.1}}
\@writefile{toc}{\contentsline {subsection}{\numberline {1.2}Reposit\IeC {\'o}rio}{2}{subsection.1.2}}
\@writefile{toc}{\contentsline {section}{\numberline {2}Metodologia}{2}{section.2}}
\newlabel{sec:metod}{{2}{2}{Metodologia}{section.2}{}}
\@writefile{toc}{\contentsline {subsection}{\numberline {2.1}Sistema}{2}{subsection.2.1}}
\@writefile{toc}{\contentsline {subsection}{\numberline {2.2}Requisitos}{2}{subsection.2.2}}
\@writefile{toc}{\contentsline {subsection}{\numberline {2.3}Testes com Imagens}{2}{subsection.2.3}}
\citation{[inRange]}
\citation{[stack]}
\@writefile{lof}{\contentsline {figure}{\numberline {1}{\ignorespaces (a) Sa\IeC {\'\i }da do terminal para uma imagem colorida de um disco de cores mediante clique na \IeC {\'a}rea vermelha; (b) Sa\IeC {\'\i }da do terminal para imagem em tons de cinza.}}{3}{figure.1}}
\newlabel{fig:terminal}{{1}{3}{(a) Saída do terminal para uma imagem colorida de um disco de cores mediante clique na área vermelha; (b) Saída do terminal para imagem em tons de cinza}{figure.1}{}}
\@writefile{lof}{\contentsline {figure}{\numberline {2}{\ignorespaces M\IeC {\'a}scara (b) resultante da fun\IeC {\c c}\IeC {\~a}o inRange em um disco de cores (a).}}{3}{figure.2}}
\newlabel{fig:mascara}{{2}{3}{Máscara (b) resultante da função inRange em um disco de cores (a)}{figure.2}{}}
\@writefile{toc}{\contentsline {section}{\numberline {3}Resultados}{4}{section.3}}
\@writefile{lof}{\contentsline {figure}{\numberline {3}{\ignorespaces Imagem com pixels com cor pr\IeC {\'o}xima \IeC {\`a} selecionada em vermelho (b) em compara\IeC {\c c}\IeC {\~a}o ao disco original (a).}}{4}{figure.3}}
\newlabel{fig:imgFinal}{{3}{4}{Imagem com pixels com cor próxima à selecionada em vermelho (b) em comparação ao disco original (a)}{figure.3}{}}
\bibdata{refs}
\bibcite{[stack]}{{1}{2018}{{dobkind}}{{}}}
\bibcite{[inRange]}{{2}{2016}{{Itseez}}{{}}}
\bibcite{[OpenCV]}{{3}{2019}{{Itseez}}{{}}}
\bibcite{[instalacao]}{{4}{2015}{{Rosebrock}}{{}}}
\gdef \BMVA@LastPage{5}
\@writefile{lof}{\contentsline {figure}{\numberline {4}{\ignorespaces Frame de v\IeC {\'\i }deo em tempo real com destaque vermelho em pixels com cores parecidas (b); Frame de anima\IeC {\c c}\IeC {\~a}o obtida em banco de imagens com destaque em pixels parecidos (a).}}{5}{figure.4}}
\newlabel{fig:videos}{{4}{5}{Frame de vídeo em tempo real com destaque vermelho em pixels com cores parecidas (b); Frame de animação obtida em banco de imagens com destaque em pixels parecidos (a)}{figure.4}{}}
\@writefile{toc}{\contentsline {section}{\numberline {4}Conclus\IeC {\~a}o}{5}{section.4}}
